[gd_scene load_steps=5 format=3 uid="uid://dimh83luqquvl"]

[ext_resource type="Texture2D" uid="uid://cxqcokbbyya8f" path="res://Sprite Packs/BlueFrogDance-Sheet.png" id="1_t2kkn"]

[sub_resource type="Animation" id="Animation_6vvpa"]
length = 0.001
tracks/0/type = "value"
tracks/0/imported = false
tracks/0/enabled = true
tracks/0/path = NodePath(".:frame")
tracks/0/interp = 1
tracks/0/loop_wrap = true
tracks/0/keys = {
"times": PackedFloat32Array(0),
"transitions": PackedFloat32Array(1),
"update": 1,
"values": [0]
}

[sub_resource type="Animation" id="Animation_6yeoj"]
resource_name = "bluefrogdance"
length = 0.4
loop_mode = 1
tracks/0/type = "value"
tracks/0/imported = false
tracks/0/enabled = true
tracks/0/path = NodePath(".:frame")
tracks/0/interp = 1
tracks/0/loop_wrap = true
tracks/0/keys = {
"times": PackedFloat32Array(0.0108146, 0.110815, 0.210815, 0.310815),
"transitions": PackedFloat32Array(1, 1, 1, 1),
"update": 1,
"values": [0, 1, 2, 3]
}

[sub_resource type="AnimationLibrary" id="AnimationLibrary_ulaih"]
_data = {
"RESET": SubResource("Animation_6vvpa"),
"bluefrogdance": SubResource("Animation_6yeoj")
}

[node name="Node2D2" type="Node2D"]

[node name="BlueFrogDance-sheet" type="Sprite2D" parent="."]
position = Vector2(0, -43)
texture = ExtResource("1_t2kkn")
hframes = 4

[node name="AnimationPlayer" type="AnimationPlayer" parent="BlueFrogDance-sheet"]
autoplay = "bluefrogdance"
libraries = {
"": SubResource("AnimationLibrary_ulaih")
}
