[gd_scene load_steps=5 format=3 uid="uid://djubo1nqfld1c"]

[ext_resource type="Texture2D" uid="uid://dlosubkfyseke" path="res://Sprite Packs/Bro nto guitar-Sheet.png" id="1_0lxb0"]

[sub_resource type="Animation" id="Animation_dvt3h"]
resource_name = "Bro-nto Guitar"
loop_mode = 1
tracks/0/type = "value"
tracks/0/imported = false
tracks/0/enabled = true
tracks/0/path = NodePath("BroNtoGuitar-sheet:frame")
tracks/0/interp = 1
tracks/0/loop_wrap = true
tracks/0/keys = {
"times": PackedFloat32Array(0, 0.2, 0.4, 0.6, 0.8, 1.1),
"transitions": PackedFloat32Array(1, 1, 1, 1, 1, 1),
"update": 1,
"values": [0, 1, 2, 3, 2, 1]
}

[sub_resource type="Animation" id="Animation_50l6d"]
length = 0.001
tracks/0/type = "value"
tracks/0/imported = false
tracks/0/enabled = true
tracks/0/path = NodePath("BroNtoGuitar-sheet:frame")
tracks/0/interp = 1
tracks/0/loop_wrap = true
tracks/0/keys = {
"times": PackedFloat32Array(0),
"transitions": PackedFloat32Array(1),
"update": 1,
"values": [0]
}

[sub_resource type="AnimationLibrary" id="AnimationLibrary_uokiv"]
_data = {
"Bro-nto Guitar": SubResource("Animation_dvt3h"),
"RESET": SubResource("Animation_50l6d")
}

[node name="Node2D" type="Node2D"]

[node name="BroNtoGuitar-sheet" type="Sprite2D" parent="."]
position = Vector2(1, -39)
texture = ExtResource("1_0lxb0")
hframes = 4

[node name="AnimationPlayer" type="AnimationPlayer" parent="."]
autoplay = "Bro-nto Guitar"
libraries = {
"": SubResource("AnimationLibrary_uokiv")
}
