[gd_scene load_steps=7 format=3 uid="uid://cl5qeaai63w8g"]

[ext_resource type="Texture2D" uid="uid://dd825w4046isa" path="res://Sprite Packs/drumstickhitdrum.png" id="1_auj0h"]
[ext_resource type="Script" path="res://Entities/Drum.gd" id="1_l27rq"]

[sub_resource type="Animation" id="Animation_aa86w"]
length = 0.001
tracks/0/type = "value"
tracks/0/imported = false
tracks/0/enabled = true
tracks/0/path = NodePath("Sprite2D:frame")
tracks/0/interp = 1
tracks/0/loop_wrap = true
tracks/0/keys = {
"times": PackedFloat32Array(0),
"transitions": PackedFloat32Array(1),
"update": 1,
"values": [0]
}

[sub_resource type="Animation" id="Animation_wh1ox"]
resource_name = "drum_hit"
length = 0.6
step = 0.01
tracks/0/type = "value"
tracks/0/imported = false
tracks/0/enabled = true
tracks/0/path = NodePath("Sprite2D:frame")
tracks/0/interp = 1
tracks/0/loop_wrap = true
tracks/0/keys = {
"times": PackedFloat32Array(0, 0.1, 0.2, 0.3, 0.4, 0.5),
"transitions": PackedFloat32Array(1, 1, 1, 1, 1, 1),
"update": 1,
"values": [0, 1, 2, 3, 4, 5]
}

[sub_resource type="AnimationLibrary" id="AnimationLibrary_c5yqd"]
_data = {
"RESET": SubResource("Animation_aa86w"),
"drum_hit": SubResource("Animation_wh1ox")
}

[sub_resource type="CircleShape2D" id="CircleShape2D_lcj3g"]
radius = 15.0

[node name="Drum" type="CharacterBody2D"]
script = ExtResource("1_l27rq")

[node name="Sprite2D" type="Sprite2D" parent="."]
position = Vector2(-14, -30)
texture = ExtResource("1_auj0h")
hframes = 6

[node name="AnimationPlayer" type="AnimationPlayer" parent="."]
speed_scale = 2.73
libraries = {
"": SubResource("AnimationLibrary_c5yqd")
}

[node name="CollisionShape2D" type="CollisionShape2D" parent="."]
position = Vector2(1, -15)
shape = SubResource("CircleShape2D_lcj3g")
