[gd_scene load_steps=9 format=3 uid="uid://cnys1n58kyg7r"]

[ext_resource type="PackedScene" uid="uid://ct0o18lha1owv" path="res://Entities/Witch.tscn" id="2_s1pdt"]
[ext_resource type="Texture2D" uid="uid://f4vqp7yjeaqw" path="res://Sprite Packs/FrogMan-Sheet.png" id="3_klg43"]

[sub_resource type="Gradient" id="Gradient_apw5c"]
offsets = PackedFloat32Array(0, 0.487097, 1)
colors = PackedColorArray(1, 1, 1, 1, 0.264753, 0.264753, 0.264753, 1, 0, 0, 0, 1)

[sub_resource type="GradientTexture2D" id="GradientTexture2D_ovd1r"]
gradient = SubResource("Gradient_apw5c")
fill = 1
fill_from = Vector2(0.509174, 0.481651)
fill_to = Vector2(1, 0.513761)

[sub_resource type="Animation" id="Animation_4771v"]
length = 0.001
tracks/0/type = "value"
tracks/0/imported = false
tracks/0/enabled = true
tracks/0/path = NodePath(".:frame")
tracks/0/interp = 1
tracks/0/loop_wrap = true
tracks/0/keys = {
"times": PackedFloat32Array(0),
"transitions": PackedFloat32Array(1),
"update": 1,
"values": [0]
}

[sub_resource type="Animation" id="Animation_ebdfg"]
resource_name = "idle"
length = 0.4
loop_mode = 1
tracks/0/type = "value"
tracks/0/imported = false
tracks/0/enabled = true
tracks/0/path = NodePath(".:frame")
tracks/0/interp = 1
tracks/0/loop_wrap = true
tracks/0/keys = {
"times": PackedFloat32Array(0, 0.1, 0.2, 0.3),
"transitions": PackedFloat32Array(1, 1, 1, 1),
"update": 1,
"values": [0, 1, 2, 3]
}

[sub_resource type="AnimationLibrary" id="AnimationLibrary_5ua3k"]
_data = {
"RESET": SubResource("Animation_4771v"),
"idle": SubResource("Animation_ebdfg")
}

[sub_resource type="RectangleShape2D" id="RectangleShape2D_olon2"]
size = Vector2(27, 18)

[node name="FrogMan" type="CharacterBody2D"]
y_sort_enabled = true

[node name="PointLight2D" type="PointLight2D" parent="."]
y_sort_enabled = true
position = Vector2(-1, 26)
scale = Vector2(1.70455, 1.01461)
color = Color(0.396078, 0.94902, 0, 0.396078)
energy = 1.84
texture = SubResource("GradientTexture2D_ovd1r")
texture_scale = 0.77

[node name="Sprite2D2" parent="." instance=ExtResource("2_s1pdt")]
y_sort_enabled = true
position = Vector2(0, -2)
texture = ExtResource("3_klg43")
hframes = 4
frame = 0

[node name="AnimationPlayer2" type="AnimationPlayer" parent="Sprite2D2"]
autoplay = "idle"
libraries = {
"": SubResource("AnimationLibrary_5ua3k")
}

[node name="CollisionShape2D" type="CollisionShape2D" parent="."]
position = Vector2(-0.5, 20)
shape = SubResource("RectangleShape2D_olon2")
