[gd_scene load_steps=5 format=3 uid="uid://ct0o18lha1owv"]

[ext_resource type="Texture2D" uid="uid://d0gv87054xw6o" path="res://Sprite Packs/Punk Ass Witch-Sheet.png" id="1_5vrqg"]

[sub_resource type="Animation" id="Animation_iv6k5"]
length = 0.001
tracks/0/type = "value"
tracks/0/imported = false
tracks/0/enabled = true
tracks/0/path = NodePath(".:frame")
tracks/0/interp = 1
tracks/0/loop_wrap = true
tracks/0/keys = {
"times": PackedFloat32Array(0),
"transitions": PackedFloat32Array(1),
"update": 1,
"values": [3]
}

[sub_resource type="Animation" id="Animation_7ntyu"]
resource_name = "idle"
length = 0.8
loop_mode = 1
tracks/0/type = "value"
tracks/0/imported = false
tracks/0/enabled = true
tracks/0/path = NodePath(".:frame")
tracks/0/interp = 1
tracks/0/loop_wrap = true
tracks/0/keys = {
"times": PackedFloat32Array(0, 0.2, 0.4, 0.6),
"transitions": PackedFloat32Array(1, 1, 1, 1),
"update": 1,
"values": [0, 2, 4, 6]
}

[sub_resource type="AnimationLibrary" id="AnimationLibrary_1pgxy"]
_data = {
"RESET": SubResource("Animation_iv6k5"),
"idle": SubResource("Animation_7ntyu")
}

[node name="Sprite2D" type="Sprite2D"]
texture = ExtResource("1_5vrqg")
hframes = 8
frame = 3

[node name="AnimationPlayer" type="AnimationPlayer" parent="."]
autoplay = "idle"
libraries = {
"": SubResource("AnimationLibrary_1pgxy")
}
